D8749/obj_dir/tb.vcd
$version Generated by VerilatedVcd $end
$timescale 1ps $end

 $scope module TOP $end
  $var wire  8 @! P1_in [7:0] $end
  $var wire  8 >! P1_out [7:0] $end
  $var wire  8 A! P2_in [7:0] $end
  $var wire  8 ?! P2_out [7:0] $end
  $var wire  1 ;! clk $end
  $var wire  1 =! intb $end
  $var wire  1 <! rst $end
  $scope module tb $end
   $var wire  8 X BUS [7:0] $end
   $var wire  1 W DB_oeb $end
   $var wire  8 V DB_out [7:0] $end
   $var wire  8 # P1_dir [7:0] $end
   $var wire  8 @! P1_in [7:0] $end
   $var wire  8 % P1_o [7:0] $end
   $var wire  8 >! P1_out [7:0] $end
   $var wire  8 $ P2_dir [7:0] $end
   $var wire  8 A! P2_in [7:0] $end
   $var wire  8 & P2_o [7:0] $end
   $var wire  8 ?! P2_out [7:0] $end
   $var wire 32 ) RAM[0] [31:0] $end
   $var wire 32 3 RAM[10] [31:0] $end
   $var wire 32 4 RAM[11] [31:0] $end
   $var wire 32 5 RAM[12] [31:0] $end
   $var wire 32 6 RAM[13] [31:0] $end
   $var wire 32 7 RAM[14] [31:0] $end
   $var wire 32 8 RAM[15] [31:0] $end
   $var wire 32 9 RAM[16] [31:0] $end
   $var wire 32 : RAM[17] [31:0] $end
   $var wire 32 ; RAM[18] [31:0] $end
   $var wire 32 < RAM[19] [31:0] $end
   $var wire 32 * RAM[1] [31:0] $end
   $var wire 32 = RAM[20] [31:0] $end
   $var wire 32 > RAM[21] [31:0] $end
   $var wire 32 ? RAM[22] [31:0] $end
   $var wire 32 @ RAM[23] [31:0] $end
   $var wire 32 A RAM[24] [31:0] $end
   $var wire 32 B RAM[25] [31:0] $end
   $var wire 32 C RAM[26] [31:0] $end
   $var wire 32 D RAM[27] [31:0] $end
   $var wire 32 E RAM[28] [31:0] $end
   $var wire 32 F RAM[29] [31:0] $end
   $var wire 32 + RAM[2] [31:0] $end
   $var wire 32 G RAM[30] [31:0] $end
   $var wire 32 H RAM[31] [31:0] $end
   $var wire 32 , RAM[3] [31:0] $end
   $var wire 32 - RAM[4] [31:0] $end
   $var wire 32 . RAM[5] [31:0] $end
   $var wire 32 / RAM[6] [31:0] $end
   $var wire 32 0 RAM[7] [31:0] $end
   $var wire 32 1 RAM[8] [31:0] $end
   $var wire 32 2 RAM[9] [31:0] $end
   $var wire  7 I RAM_addr [6:0] $end
   $var wire 32 P RAM_newval [31:0] $end
   $var wire 32 O RAM_oldval [31:0] $end
   $var wire 32 J RAM_r [31:0] $end
   $var wire 16 N RAM_read [15:0] $end
   $var wire  7 M RAM_waddr [6:0] $end
   $var wire  2 K RAM_wen [1:0] $end
   $var wire 16 L RAM_wval [15:0] $end
   $var wire  1 T RDb $end
   $var wire 11 ' ROM_addr [10:0] $end
   $var wire  8 ( ROM_val [7:0] $end
   $var wire  1 D! U_cd $end
   $var wire  1 C! U_csb $end
   $var wire  1 B! U_rst $end
   $var wire  1 Y U_rst_prev $end
   $var wire  1 Z U_txe $end
   $var wire  1 U WRb $end
   $var wire  1 ;! clk $end
   $var wire  1 =! intb $end
   $var wire 16 S masked_wval [15:0] $end
   $var wire  1 <! rst $end
   $var wire  3 [ tx_timeout [2:0] $end
   $var wire 16 Q wmask0 [15:0] $end
   $var wire 16 R wmask1 [15:0] $end
   $scope module P874x $end
    $var wire  8 ^ A [7:0] $end
    $var wire  8 -! ALU_in1 [7:0] $end
    $var wire  8 .! ALU_in2 [7:0] $end
    $var wire  9 3! ALU_res [8:0] $end
    $var wire  8 ] DB_in [7:0] $end
    $var wire  1 W DB_oeb $end
    $var wire  8 V DB_out [7:0] $end
    $var wire 32 M! EXECUTE [31:0] $end
    $var wire  1 ` F0 $end
    $var wire  1 a F1 $end
    $var wire 32 K! FETCH [31:0] $end
    $var wire 32 L! HALT [31:0] $end
    $var wire  1 =! INTb $end
    $var wire  8 # P1_dir [7:0] $end
    $var wire  8 E! P1_in [7:0] $end
    $var wire  8 % P1_out [7:0] $end
    $var wire  8 $ P2_dir [7:0] $end
    $var wire  8 F! P2_in [7:0] $end
    $var wire  8 & P2_out [7:0] $end
    $var wire 11 l PC [10:0] $end
    $var wire 11 m PC_next [10:0] $end
    $var wire  8 p PSW [7:0] $end
    $var wire  7 I RAM_addr [6:0] $end
    $var wire  8 v RAM_val [7:0] $end
    $var wire 16 N RAM_val_r [15:0] $end
    $var wire  7 M RAM_waddr [6:0] $end
    $var wire  2 K RAM_wen [1:0] $end
    $var wire 16 L RAM_wval [15:0] $end
    $var wire  1 T RDb $end
    $var wire 11 ' ROM_addr [10:0] $end
    $var wire  8 ( ROM_val [7:0] $end
    $var wire  3 h SP [2:0] $end
    $var wire  3 o SP_down [2:0] $end
    $var wire  3 n SP_up [2:0] $end
    $var wire  1 I! T0 $end
    $var wire  1 \ T0_oeb $end
    $var wire  1 ;! T0_out $end
    $var wire  1 J! T1 $end
    $var wire 32 N! WRITEBACK [31:0] $end
    $var wire  1 U WRb $end
    $var wire  9 /! add_res [8:0] $end
    $var wire  9 0! addc_res [8:0] $end
    $var wire  8 2! and_res [7:0] $end
    $var wire  1 6! bus_in $end
    $var wire  1 _ carry $end
    $var wire  1 ;! clk $end
    $var wire  1 f counter_en $end
    $var wire  1 g ent0 $end
    $var wire  2 q in_intr [1:0] $end
    $var wire  8 r index_regs[0] [7:0] $end
    $var wire  8 s index_regs[1] [7:0] $end
    $var wire  8 t index_regs[2] [7:0] $end
    $var wire  8 u index_regs[3] [7:0] $end
    $var wire  8 w instr [7:0] $end
    $var wire  1 c intr_en $end
    $var wire  1 "! is_call $end
    $var wire  1 $! is_djnz $end
    $var wire  1 '! is_imm $end
    $var wire  1 !! is_jump $end
    $var wire  1 ~ is_long_jump $end
    $var wire  1 #! is_ret $end
    $var wire  1 H! jump_cond $end
    $var wire  1 G! jump_cond_tbl $end
    $var wire  1 7! last_t0 $end
    $var wire  8 j last_timer [7:0] $end
    $var wire  1 (! mem_op $end
    $var wire  1 | movp $end
    $var wire  1 } movp3 $end
    $var wire  1 :! needs_trupt $end
    $var wire  8 1! or_res [7:0] $end
    $var wire  1 %! port_col $end
    $var wire  1 b reg_bank $end
    $var wire  2 4! reg_bank_addr [1:0] $end
    $var wire  3 x reg_idx [2:0] $end
    $var wire  8 5! reg_ram_addr [7:0] $end
    $var wire  1 *! rmem $end
    $var wire  1 <! rst $end
    $var wire  1 y special1 $end
    $var wire  1 z special2 $end
    $var wire  1 { special3 $end
    $var wire  2 9! state [1:0] $end
    $var wire  8 i timer [7:0] $end
    $var wire  9 8! timer_div [8:0] $end
    $var wire  1 e timer_en $end
    $var wire  8 k timer_next [7:0] $end
    $var wire  1 +! to_accum $end
    $var wire  1 &! to_port $end
    $var wire  1 ,! to_reg $end
    $var wire  1 d trupt_en $end
    $var wire  1 )! wmem $end
   $upscope $end
  $upscope $end
 $upscope $end
$enddefinitions $end


#1
b00000000 #
b00000000 $
b00000000 %
b00000000 &
b00000000000 '
b00010101 (
b00000000000000000000000000000000 )
b00000000000000000000000000000000 *
b00000000000000000000000000000000 +
b00000000000000000000000000000000 ,
b00000000000000000000000000000000 -
b00000000000000000000000000000000 .
b00000000000000000000000000000000 /
b00000000000000000000000000000000 0
b00000000000000000000000000000000 1
b00000000000000000000000000000000 2
b00000000000000000000000000000000 3
b00000000000000000000000000000000 4
b00000000000000000000000000000000 5
b00000000000000000000000000000000 6
b00000000000000000000000000000000 7
b00000000000000000000000000000000 8
b00000000000000000000000000000000 9
b00000000000000000000000000000000 :
b00000000000000000000000000000000 ;
b00000000000000000000000000000000 <
b00000000000000000000000000000000 =
b00000000000000000000000000000000 >
b00000000000000000000000000000000 ?
b00000000000000000000000000000000 @
b00000000000000000000000000000000 A
b00000000000000000000000000000000 B
b00000000000000000000000000000000 C
b00000000000000000000000000000000 D
b00000000000000000000000000000000 E
b00000000000000000000000000000000 F
b00000000000000000000000000000000 G
b00000000000000000000000000000000 H
b0000000 I
b00000000000000000000000000000000 J
b00 K
b0000000000000000 L
b0000000 M
b0000000000000000 N
b00000000000000000000000000000000 O
b00000000000000000000000000000000 P
b0000000000000000 Q
b1111111111111111 R
b0000000000000000 S
0T
0U
b00000000 V
0W
b00000000 X
0Y
0Z
b000 [
1\
b10101010 ]
b00000000 ^
0_
0`
0a
0b
0c
0d
0e
0f
0g
b000 h
b00000000 i
b00000000 j
b00000001 k
b00000000000 l
b00000000001 m
b001 n
b111 o
b00001000 p
b00 q
b00000000 r
b00000000 s
b00000000 t
b00000000 u
b00000000 v
b00000000 w
b000 x
0y
0z
0{
0|
0}
0~
0!!
0"!
0#!
0$!
0%!
0&!
0'!
0(!
0)!
0*!
0+!
0,!
b00000000 -!
b00000000 .!
b000000000 /!
b000000000 0!
b00000000 1!
b00000000 2!
b011111111 3!
b00 4!
b00000000 5!
06!
07!
b000000000 8!
b00 9!
0:!
1;!
1<!
1=!
b00000000 >!
b00000000 ?!
b00000000 @!
b00000000 A!
0B!
0C!
0D!
b11111111 E!
b11111111 F!
0G!
1H!
0I!
0J!
b00000000000000000000000000000000 K!
b00000000000000000000000000000001 L!
b00000000000000000000000000000010 M!
b00000000000000000000000000000011 N!
#2
0;!
#3
b11111111 #
b11111111 $
1T
1U
1W
b00000000 ]
1;!
b11111111 >!
b11111111 ?!
1B!
1C!
1D!
b00000000 E!
b00000000 F!
#4
0;!
#5
1;!
#6
0;!
#7
1;!
#8
0;!
#9
b00000000001 '
b00110101 (
b0000101 I
1Y
1Z
b00000000001 l
b00000000010 m
b00010101 w
b101 x
1y
b000000001 3!
b00000101 5!
b000000001 8!
b10 9!
1;!
0<!
b00001000 F!
#10
0;!
#11
b000000010 8!
b11 9!
1;!
#12
0;!
#13
b000000011 8!
b00 9!
1;!
#14
0;!
#15
b00000000010 '
b11000101 (
b00000000010 l
b00000000011 m
b00110101 w
b000000000 3!
b000000100 8!
b10 9!
1;!
#16
0;!
#17
b000000101 8!
b11 9!
1;!
#18
0;!
#19
b000000110 8!
b00 9!
1;!
#20
0;!
#21
b00000000011 '
b01010101 (
b00000000011 l
b00000000100 m
b11000101 w
b011111111 3!
b000000111 8!
b10 9!
1;!
1G!
#22
0;!
#23
b000001000 8!
b11 9!
1;!
#24
0;!
#25
b000001001 8!
b00 9!
1;!
#26
0;!
#27
b00000000100 '
b00110100 (
b00000000100 l
b00000000101 m
b01010101 w
b000000000 3!
b000001010 8!
b10 9!
1;!
0G!
#28
0;!
#29
1e
b000001011 8!
b11 9!
1;!
#30
0;!
#31
b000001100 8!
b00 9!
1;!
#32
0;!
#33
b00000000101 '
b00001111 (
b0000100 I
b00000000101 l
b00000000110 m
b00110100 w
b100 x
0y
1~
1!!
1"!
1'!
b00001111 .!
b000001111 /!
b000001111 0!
b00001111 1!
b00000100 5!
b000001101 8!
b10 9!
1;!
#34
0;!
#35
b00100001111 '
b00100011 (
b11 K
b0000000000000110 L
b0001000 M
b00000000000000000000000000000110 P
b1111111111111111 Q
b0000000000000000 R
b0000000000000110 S
b001 h
b00100001111 l
b00100010000 m
b010 n
b000 o
b00001001 p
b00100011 .!
b000100011 /!
b000100011 0!
b00100011 1!
b000001110 8!
b11 9!
1;!
#36
0;!
#37
b00000000000000000000000000000110 +
b00 K
b00000000000000000000000000000110 O
b0000000000000000 Q
b1111111111111111 R
b0000000000000000 S
b000001111 8!
b00 9!
1;!
#38
0;!
#39
b00100010000 '
b11111000 (
b0000011 I
b00100010000 l
b00100010001 m
b00100011 w
b011 x
1{
0~
0!!
0"!
1+!
b11111000 .!
b011111000 /!
b011111000 0!
b11111000 1!
b011111000 3!
b00000011 5!
b000010000 8!
b10 9!
1;!
1G!
#40
0;!
#41
b000010001 8!
b11 9!
1;!
#42
0;!
#43
b00100010001 '
b10110111 (
b11111000 ^
b00100010001 l
b00100010010 m
b11111000 -!
b10110111 .!
b110101111 /!
b110101111 0!
b11111111 1!
b10110000 2!
b010110111 3!
b000010010 8!
b00 9!
1;!
#44
0;!
#45
b00100010010 '
b00100011 (
b0000111 I
b00100010010 l
b00100010011 m
b10110111 w
b111 x
1z
0{
0'!
0+!
b00000000 .!
b011111000 /!
b011111000 0!
b11111000 1!
b00000000 2!
b000000000 3!
b00000111 5!
b000010011 8!
b10 9!
1;!
0G!
#46
0;!
#47
b11111000 $
b000010100 8!
b11 9!
1;!
b11111000 ?!
0B!
0C!
0D!
b00001111 F!
#48
0;!
#49
b000010101 8!
b00 9!
1;!
#50
0;!
#51
b00100010011 '
b00001111 (
b0000011 I
b00100010011 l
b00100010100 m
b00100011 w
b011 x
0z
1{
1'!
1+!
b00001111 .!
b100000111 /!
b100000111 0!
b11111111 1!
b00001000 2!
b000001111 3!
b00000011 5!
b000010110 8!
b10 9!
1;!
1G!
#52
0;!
#53
b000010111 8!
b11 9!
1;!
#54
0;!
#55
b00100010100 '
b00111010 (
b00001111 ^
b00100010100 l
b00100010101 m
b00001111 -!
b00111010 .!
b001001001 /!
b001001001 0!
b00111111 1!
b00001010 2!
b000111010 3!
b000011000 8!
b00 9!
1;!
#56
0;!
#57
b00100010101 '
b00000000 (
b0000010 I
b00100010101 l
b00100010110 m
b00111010 w
b010 x
0{
1%!
1&!
0'!
0+!
b00000000 .!
b000001111 /!
b000001111 0!
b00001111 1!
b00000000 2!
b000001111 3!
b00000010 5!
b000011001 8!
b10 9!
1;!
0G!
#58
0;!
#59
b000011010 8!
b11 9!
1;!
#60
0;!
#61
b00001111 &
b000011011 8!
b00 9!
1;!
b11111111 ?!
1B!
1C!
1D!
#62
0;!
#63
b00100010110 '
b10011010 (
b0000000 I
b00100010110 l
b00100010111 m
b00000000 w
b000 x
0%!
0&!
b000001110 3!
b00000000 5!
b000011100 8!
b10 9!
1;!
#64
0;!
#65
b000011101 8!
b11 9!
1;!
#66
0;!
#67
b000011110 8!
b00 9!
1;!
#68
0;!
#69
b00100010111 '
b11111110 (
b0000010 I
b00100010111 l
b00100011000 m
b10011010 w
b010 x
1%!
1&!
1'!
b11111110 .!
b100001101 /!
b100001101 0!
b11111111 1!
b00001110 2!
b00000010 5!
b000011111 8!
b10 9!
1;!
1G!
#70
0;!
#71
b000100000 8!
b11 9!
1;!
#72
0;!
#73
b00001110 &
b00100011000 '
b00000000 (
b00100011000 l
b00100011001 m
b00001110 -!
b00000000 .!
b000001110 /!
b000001110 0!
b00001110 1!
b00000000 2!
b000000000 3!
b000100001 8!
b00 9!
1;!
b11111110 ?!
0B!
#74
0;!
#75
b00100011001 '
b10011010 (
b0000000 I
b00100011001 l
b00100011010 m
b00000000 w
b000 x
0%!
0&!
0'!
b00001111 -!
b000001111 /!
b000001111 0!
b00001111 1!
b000001110 3!
b00000000 5!
b000100010 8!
b10 9!
1;!
0G!
#76
0;!
#77
b000100011 8!
b11 9!
1;!
#78
0;!
#79
b000100100 8!
b00 9!
1;!
#80
0;!
#81
b00100011010 '
b11111101 (
b0000010 I
b00100011010 l
b00100011011 m
b10011010 w
b010 x
1%!
1&!
1'!
b00001110 -!
b11111101 .!
b100001011 /!
b100001011 0!
b11111111 1!
b00001100 2!
b000001100 3!
b00000010 5!
b000100101 8!
b10 9!
1;!
1G!
#82
0;!
#83
b000100110 8!
b11 9!
1;!
#84
0;!
#85
b00001100 &
b00100011011 '
b00100011 (
b00100011011 l
b00100011100 m
b00001100 -!
b00100011 .!
b000101111 /!
b000101111 0!
b00101111 1!
b00000000 2!
b000000000 3!
b000100111 8!
b00 9!
1;!
b11111100 ?!
0C!
#86
0;!
#87
b00100011100 '
b01001110 (
b0000011 I
b00100011100 l
b00100011101 m
b00100011 w
b011 x
1{
0%!
0&!
1+!
b00001111 -!
b01001110 .!
b001011101 /!
b001011101 0!
b01001111 1!
b00001110 2!
b001001110 3!
b00000011 5!
b000101000 8!
b10 9!
1;!
#88
0;!
#89
b000101001 8!
b11 9!
1;!
#90
0;!
#91
b00100011101 '
b00000010 (
b01001110 ^
b00100011101 l
b00100011110 m
b01001110 -!
b00000010 .!
b001010000 /!
b001010000 0!
b01001110 1!
b00000010 2!
b000000010 3!
b000101010 8!
b00 9!
1;!
#92
0;!
#93
b00100011110 '
b00100011 (
b0000010 I
b00100011110 l
b00100011111 m
b00000010 w
b010 x
0{
0'!
0+!
b00000000 .!
b001001110 /!
b001001110 0!
b00000000 2!
b001001101 3!
b00000010 5!
b000101011 8!
b10 9!
1;!
0G!
0H!
#94
0;!
#95
b000101100 8!
b11 9!
1;!
#96
0;!
#97
0U
b01001110 V
0W
b01001110 X
b000101101 8!
b00 9!
1;!
#98
0;!
#99
b00100011111 '
b00110011 (
b0000011 I
1U
b00100011111 l
b00100100000 m
b00100011 w
b011 x
1{
1'!
1+!
b00110011 .!
b010000001 /!
b010000001 0!
b01111111 1!
b00000010 2!
b000110011 3!
b00000011 5!
b000101110 8!
b10 9!
1;!
1G!
1H!
#100
0;!
#101
b000101111 8!
b11 9!
1;!
#102
0;!
#103
b00100100000 '
b00000010 (
b00110011 ^
b00100100000 l
b00100100001 m
b00110011 -!
b00000010 .!
b000110101 /!
b000110101 0!
b00110011 1!
b000000010 3!
b000110000 8!
b00 9!
1;!
#104
0;!
#105
b00100100001 '
b10001010 (
b0000010 I
b00100100001 l
b00100100010 m
b00000010 w
b010 x
0{
0'!
0+!
b00000000 .!
b000110011 /!
b000110011 0!
b00000000 2!
b000110010 3!
b00000010 5!
b000110001 8!
b10 9!
1;!
0G!
#106
0;!
#107
b000110010 8!
b11 9!
1;!
#108
0;!
#109
0U
b00110011 V
b00110011 X
b000110011 8!
b00 9!
1;!
#110
0;!
#111
b00100100010 '
b00000010 (
1U
b00100100010 l
b00100100011 m
b10001010 w
1%!
1&!
1'!
b00001100 -!
b00000010 .!
b000001110 /!
b000001110 0!
b00001110 1!
b000001110 3!
b000110100 8!
b10 9!
1;!
1G!
#112
0;!
#113
b000110101 8!
b11 9!
1;!
#114
0;!
#115
b00001110 &
b00100100011 '
b10000011 (
b00100100011 l
b00100100100 m
b00001110 -!
b10000011 .!
b010010001 /!
b010010001 0!
b10001111 1!
b00000010 2!
b010001111 3!
b000110110 8!
b00 9!
1;!
b11111110 ?!
1C!
#116
0;!
#117
b00100100100 '
b00100011 (
b0000011 I
b00100100100 l
b00100100101 m
b10000011 w
b011 x
1{
1#!
0%!
0&!
0'!
b00110011 -!
b00000000 .!
b000110011 /!
b000110011 0!
b00110011 1!
b00000000 2!
b000110011 3!
b00000011 5!
b000110111 8!
b10 9!
1;!
#118
0;!
#119
b0001000 I
b00000000000000000000000000000110 J
b0000000000000110 N
b000 h
b001 n
b111 o
b00001000 p
b00000110 v
b00000110 .!
b000111001 /!
b000111001 0!
b00110111 1!
b00000010 2!
b000110111 3!
b000111000 8!
b11 9!
1;!
#120
0;!
#121
b00000000110 '
b00100100 (
b00000000110 l
b00000000111 m
b000111001 8!
b00 9!
1;!
#122
0;!
#123
b00000000111 '
b10001110 (
b0000100 I
b00000000000000000000000000000000 J
b0000000000000000 N
b00000000111 l
b00000001000 m
b00000000 v
b00100100 w
b100 x
0{
1~
1!!
0#!
1'!
b10001110 .!
b011000001 /!
b011000001 0!
b10111111 1!
b010001110 3!
b00000100 5!
b000111010 8!
b10 9!
1;!
#124
0;!
#125
b00110001110 '
b10111000 (
b00110001110 l
b00110001111 m
b10111000 .!
b011101011 /!
b011101011 0!
b10111011 1!
b00110000 2!
b010111000 3!
b000111011 8!
b11 9!
1;!
#126
0;!
#127
b000111100 8!
b00 9!
1;!
#128
0;!
#129
b00110001111 '
b00101000 (
b0000000 I
b00110001111 l
b00110010000 m
b10111000 w
b000 x
0~
0!!
1%!
1,!
b00101000 .!
b001011011 /!
b001011011 0!
b00111011 1!
b00100000 2!
b000101000 3!
b00000000 5!
b000111101 8!
b10 9!
1;!
0G!
#130
0;!
#131
b000111110 8!
b11 9!
1;!
#132
0;!
#133
b00110010000 '
b10110000 (
b01 K
b0000000000101000 L
b0000000 M
b00000000000000000000000000000000 O
b00000000000000000000000000101000 P
b0000000011111111 Q
b1111111100000000 R
b0000000000101000 S
b00110010000 l
b00110010001 m
b00101000 r
b00101000 v
b10110000 .!
b011100011 /!
b011100011 0!
b10110011 1!
b00110000 2!
b010110000 3!
b000111111 8!
b00 9!
1;!
#134
0;!
#135
b00110010001 '
b01111100 (
b00000000000000000000000000101000 )
b0101000 I
b00 K
b00000000000000000000000000101000 O
b0000000000000000 Q
b1111111111111111 R
b0000000000000000 S
b00110010001 l
b00110010010 m
b00000000 v
b10110000 w
0%!
1(!
1)!
b01111100 .!
b010101111 /!
b010101111 0!
b01111111 1!
b001111100 3!
b001000000 8!
b10 9!
1;!
#136
0;!
#137
b001000001 8!
b11 9!
1;!
#138
0;!
#139
b00110010010 '
b00100111 (
b01 K
b0000000001111100 L
b0101000 M
b00000000000000000000000000000000 O
b00000000000000000000000001111100 P
b0000000011111111 Q
b1111111100000000 R
b0000000001111100 S
b00110010010 l
b00110010011 m
b00100111 .!
b001011010 /!
b001011010 0!
b00110111 1!
b00100011 2!
b000100111 3!
b001000010 8!
b00 9!
1;!
#140
0;!
#141
b00110010011 '
b11001000 (
b00000000000000000000000001111100 3
b0000111 I
b00 K
b00000000000000000000000001111100 O
b0000000000000000 Q
b1111111111111111 R
b0000000000000000 S
b00110010011 l
b00110010100 m
b00100111 w
b111 x
1z
0'!
0(!
0)!
0,!
b00000000 .!
b000110011 /!
b000110011 0!
b00110011 1!
b00000000 2!
b000000000 3!
b00000111 5!
b001000011 8!
b10 9!
1;!
1G!
#142
0;!
#143
b00000000 ^
b00000000 -!
b000000000 /!
b000000000 0!
b00000000 1!
b001000100 8!
b11 9!
1;!
#144
0;!
#145
b001000101 8!
b00 9!
1;!
#146
0;!
#147
b00110010100 '
b10100000 (
b0000000 I
b00000000000000000000000000101000 J
b0000000000101000 N
b00110010100 l
b00110010101 m
b00101000 v
b11001000 w
b000 x
0z
1%!
1,!
b00101000 .!
b000101000 /!
b000101000 0!
b00101000 1!
b000100111 3!
b00000000 5!
b001000110 8!
b10 9!
1;!
#148
0;!
#149
b001000111 8!
b11 9!
1;!
#150
0;!
#151
b01 K
b0000000000100111 L
b0000000 M
b00000000000000000000000000101000 O
b00000000000000000000000000100111 P
b0000000011111111 Q
b1111111100000000 R
b0000000000100111 S
b00100111 r
b00100111 v
b00100111 .!
b000100111 /!
b000100111 0!
b00100111 1!
b000100110 3!
b001001000 8!
b00 9!
1;!
#152
0;!
#153
b00110010101 '
b11001000 (
b00000000000000000000000000100111 )
b0100111 I
b00000000000000000000000000000000 J
b00 K
b0000000000000000 N
b00000000000000000000000000100111 O
b0000000000000000 Q
b1111111111111111 R
b0000000000000000 S
b00110010101 l
b00110010110 m
b00000000 v
b10100000 w
0%!
1(!
1)!
b00000000 .!
b000000000 /!
b000000000 0!
b00000000 1!
b000000000 3!
b001001001 8!
b10 9!
1;!
0G!
#154
0;!
#155
b001001010 8!
b11 9!
1;!
#156
0;!
#157
b01 K
b0000000000000000 L
b0100111 M
b00000000000000000000000000000000 O
b00000000000000000000000000000000 P
b0000000011111111 Q
b1111111100000000 R
b001001011 8!
b00 9!
1;!
#158
0;!
#159
b00110010110 '
b10100000 (
b0000000 I
b00000000000000000000000000100111 J
b00 K
b0000000000100111 N
b0000000000000000 Q
b1111111111111111 R
b00110010110 l
b00110010111 m
b00100111 v
b11001000 w
1%!
0(!
0)!
b00100111 .!
b000100111 /!
b000100111 0!
b00100111 1!
b000100110 3!
b001001100 8!
b10 9!
1;!
1G!
#160
0;!
#161
b001001101 8!
b11 9!
1;!
#162
0;!
#163
b01 K
b0000000000100110 L
b0000000 M
b00000000000000000000000000100111 O
b00000000000000000000000000100110 P
b0000000011111111 Q
b1111111100000000 R
b0000000000100110 S
b00100110 r
b00100110 v
b00100110 .!
b000100110 /!
b000100110 0!
b00100110 1!
b000100101 3!
b001001110 8!
b00 9!
1;!
#164
0;!
#165
b00110010111 '
b11001000 (
b00000000000000000000000000100110 )
b0100110 I
b00000000000000000000000000000000 J
b00 K
b0000000000000000 N
b00000000000000000000000000100110 O
b0000000000000000 Q
b1111111111111111 R
b0000000000000000 S
b00110010111 l
b00110011000 m
b00000000 v
b10100000 w
0%!
1(!
1)!
b00000000 .!
b000000000 /!
b000000000 0!
b00000000 1!
b000000000 3!
b001001111 8!
b10 9!
1;!
0G!
#166
0;!
#167
b001010000 8!
b11 9!
1;!
#168
0;!
#169
b01 K
b0000000000000000 L
b0100110 M
b00000000000000000000000000000000 O
b00000000000000000000000000000000 P
b0000000011111111 Q
b1111111100000000 R
b001010001 8!
b00 9!
1;!
#170
0;!
#171
b00110011000 '
b10100000 (
b0000000 I
b00000000000000000000000000100110 J
b00 K
b0000000000100110 N
b0000000000000000 Q
b1111111111111111 R
b00110011000 l
b00110011001 m
b00100110 v
b11001000 w
1%!
0(!
0)!
b00100110 .!
b000100110 /!
b000100110 0!
b00100110 1!
b000100101 3!
b001010010 8!
b10 9!
1;!
1G!
#172
0;!
#173
b001010011 8!
b11 9!
1;!
#174
0;!
#175
b01 K
b0000000000100101 L
b0000000 M
b00000000000000000000000000100110 O
b00000000000000000000000000100101 P
b0000000011111111 Q
b1111111100000000 R
b0000000000100101 S
b00100101 r
b00100101 v
b00100101 .!
b000100101 /!
b000100101 0!
b00100101 1!
b000100100 3!
b001010100 8!
b00 9!
1;!
#176
0;!
#177
b00110011001 '
b10111000 (
b00000000000000000000000000100101 )
b0100101 I
b00000000000000000000000000000000 J
b00 K
b0000000000000000 N
b00000000000000000000000000100101 O
b0000000000000000 Q
b1111111111111111 R
b0000000000000000 S
b00110011001 l
b00110011010 m
b00000000 v
b10100000 w
0%!
1(!
1)!
b00000000 .!
b000000000 /!
b000000000 0!
b00000000 1!
b000000000 3!
b001010101 8!
b10 9!
1;!
0G!
#178
0;!
#179
b001010110 8!
b11 9!
1;!
#180
0;!
#181
b01 K
b0000000000000000 L
b0100101 M
b00000000000000000000000000000000 O
b00000000000000000000000000000000 P
b0000000011111111 Q
b1111111100000000 R
b001010111 8!
b00 9!
1;!
#182
0;!
#183
b00110011010 '
b00101100 (
b0000000 I
b00000000000000000000000000100101 J
b00 K
b0000000000100101 N
b0000000000000000 Q
b1111111111111111 R
b00110011010 l
b00110011011 m
b00100101 v
b10111000 w
1%!
1'!
0(!
0)!
b00101100 .!
b000101100 /!
b000101100 0!
b00101100 1!
b000101100 3!
b001011000 8!
b10 9!
1;!
#184
0;!
#185
b001011001 8!
b11 9!
1;!
#186
0;!
#187
b00110011011 '
b10100000 (
b01 K
b0000000000101100 L
b0000000 M
b00000000000000000000000000100101 O
b00000000000000000000000000101100 P
b0000000011111111 Q
b1111111100000000 R
b0000000000101100 S
b00110011011 l
b00110011100 m
b00101100 r
b00101100 v
b10100000 .!
b010100000 /!
b010100000 0!
b10100000 1!
b010100000 3!
b001011010 8!
b00 9!
1;!
#188
0;!
#189
b00110011100 '
b11001000 (
b00000000000000000000000000101100 )
b0101100 I
b00000000000000000000000000000000 J
b00 K
b0000000000000000 N
b00000000000000000000000000101100 O
b0000000000000000 Q
b1111111111111111 R
b0000000000000000 S
b00110011100 l
b00110011101 m
b00000000 v
b10100000 w
0%!
0'!
1(!
1)!
b00000000 .!
b000000000 /!
b000000000 0!
b00000000 1!
b000000000 3!
b001011011 8!
b10 9!
1;!
#190
0;!
#191
b001011100 8!
b11 9!
1;!
#192
0;!
#193
b01 K
b0000000000000000 L
b0101100 M
b00000000000000000000000000000000 O
b00000000000000000000000000000000 P
b0000000011111111 Q
b1111111100000000 R
b001011101 8!
b00 9!
1;!
#194
0;!
#195
b00110011101 '
b10110000 (
b0000000 I
b00000000000000000000000000101100 J
b00 K
b0000000000101100 N
b0000000000000000 Q
b1111111111111111 R
b00110011101 l
b00110011110 m
b00101100 v
b11001000 w
1%!
0(!
0)!
b00101100 .!
b000101100 /!
b000101100 0!
b00101100 1!
b000101011 3!
b001011110 8!
b10 9!
1;!
1G!
#196
0;!
#197
b001011111 8!
b11 9!
1;!
#198
0;!
#199
b01 K
b0000000000101011 L
b0000000 M
b00000000000000000000000000101100 O
b00000000000000000000000000101011 P
b0000000011111111 Q
b1111111100000000 R
b0000000000101011 S
b00101011 r
b00101011 v
b00101011 .!
b000101011 /!
b000101011 0!
b00101011 1!
b000101010 3!
b001100000 8!
b00 9!
1;!
#200
0;!
#201
b00110011110 '
b00000100 (
b00000000000000000000000000101011 )
b0101011 I
b00000000000000000000000001111100 J
b00 K
b0000000000000000 N
b00000000000000000000000000101011 O
b0000000000000000 Q
b1111111111111111 R
b0000000000000000 S
b00110011110 l
b00110011111 m
b00000000 v
b10110000 w
0%!
1'!
1(!
1)!
b00000100 .!
b000000100 /!
b000000100 0!
b00000100 1!
b000000100 3!
b001100001 8!
b10 9!
1;!
0G!
#202
0;!
#203
b001100010 8!
b11 9!
1;!
#204
0;!
#205
b00110011111 '
b11001000 (
b01 K
b0000000000000100 L
b0101011 M
b00000000000000000000000001111100 O
b00000100000000000000000001111100 P
b0000000011111111 Q
b1111111100000000 R
b0000000000000100 S
b00110011111 l
b00110100000 m
b11001000 .!
b011001000 /!
b011001000 0!
b11001000 1!
b011001000 3!
b001100011 8!
b00 9!
1;!
#206
0;!
#207
b00110100000 '
b10110000 (
b00000100000000000000000001111100 3
b0000000 I
b00000000000000000000000000101011 J
b00 K
b0000000000101011 N
b00000100000000000000000001111100 O
b0000000000000000 Q
b1111111111111111 R
b0000000000000000 S
b00110100000 l
b00110100001 m
b00101011 v
b11001000 w
1%!
0'!
0(!
0)!
b00101011 .!
b000101011 /!
b000101011 0!
b00101011 1!
b000101010 3!
b001100100 8!
b10 9!
1;!
1G!
#208
0;!
#209
b001100101 8!
b11 9!
1;!
#210
0;!
